source_allseeds/v2s1-orig/jorphan/org/apache/jorphan/collections/Data.java
source_allseeds/v2s1-orig/jorphan/org/apache/jorphan/collections/SearchByClass.java
source_allseeds/v2s1-orig/jorphan/org/apache/jorphan/collections/HashTree.java
source_allseeds/v2s1-orig/jorphan/org/apache/jorphan/collections/ListedHashTree.java
source_allseeds/v2s1-orig/jorphan/org/apache/jorphan/collections/HashTreeTraverser.java
source_allseeds/v2s1-orig/jorphan/org/apache/jorphan/collections/SortedHashTree.java
source_allseeds/v2s1-orig/jorphan/org/apache/jorphan/reflect/ClassFinder.java
source_allseeds/v2s1-orig/jorphan/org/apache/jorphan/util/JOrphanUtils.java
source_allseeds/v2s1-orig/jorphan/org/apache/jorphan/gui/JLabeledTextField.java
source_allseeds/v2s1-orig/jorphan/org/apache/jorphan/gui/ComponentUtil.java
source_allseeds/v2s1-orig/jorphan/org/apache/jorphan/gui/JLabeledTextArea.java
source_allseeds/v2s1-orig/jorphan/org/apache/jorphan/gui/JLabeledField.java
source_allseeds/v2s1-orig/jorphan/org/apache/jorphan/gui/JLabeledPasswordField.java
source_allseeds/v2s1-orig/jorphan/org/apache/jorphan/gui/JLabeledChoice.java
source_allseeds/v2s1-orig/jorphan/org/apache/jorphan/gui/layout/VerticalLayout.java
source_allseeds/v2s1-orig/jorphan/org/apache/jorphan/logging/LoggingManager.java
source_allseeds/v2s1-orig/jorphan/org/apache/jorphan/test/StringBasedComparator.java
source_allseeds/v2s1-orig/jorphan/org/apache/jorphan/test/AllTests.java
source_allseeds/v2s1-orig/jorphan/org/apache/jorphan/test/AllTestsSelect_uninstr.java
source_allseeds/v2s1-orig/jorphan/org/apache/jorphan/test/UnitTestManager.java
source_allseeds/v2s1-orig/jorphan/org/apache/jorphan/test/AllTestsSelect.java
source_allseeds/v2s1-orig/jorphan/org/apache/jorphan/io/TextFile.java
source_allseeds/v2s1-orig/core/org/apache/jmeter/util/JsseSSLManager.java
source_allseeds/v2s1-orig/core/org/apache/jmeter/util/NamedObject.java
source_allseeds/v2s1-orig/core/org/apache/jmeter/util/SSLManager.java
source_allseeds/v2s1-orig/core/org/apache/jmeter/util/LocaleChangeListener.java
source_allseeds/v2s1-orig/core/org/apache/jmeter/util/JMeterUtils.java
source_allseeds/v2s1-orig/core/org/apache/jmeter/util/LocaleChangeEvent.java
source_allseeds/v2s1-orig/core/org/apache/jmeter/util/ColorHelper.java
source_allseeds/v2s1-orig/core/org/apache/jmeter/util/StringUtilities.java
source_allseeds/v2s1-orig/core/org/apache/jmeter/util/keystore/JmeterKeyStore.java
source_allseeds/v2s1-orig/core/org/apache/jmeter/util/keystore/DefaultKeyStore.java
source_allseeds/v2s1-orig/core/org/apache/jmeter/gui/NamePanel.java
source_allseeds/v2s1-orig/core/org/apache/jmeter/gui/util/TextAreaCellRenderer.java
source_allseeds/v2s1-orig/core/org/apache/jmeter/gui/util/JMeterColor.java
source_allseeds/v2s1-orig/core/org/apache/jmeter/gui/util/FilePanel.java
source_allseeds/v2s1-orig/core/org/apache/jmeter/gui/util/MenuFactory.java
source_allseeds/v2s1-orig/core/org/apache/jmeter/gui/util/FileDialoger.java
source_allseeds/v2s1-orig/core/org/apache/jmeter/gui/util/TextAreaTableCellEditor.java
source_allseeds/v2s1-orig/core/org/apache/jmeter/gui/util/ButtonPanel.java
source_allseeds/v2s1-orig/core/org/apache/jmeter/gui/util/PowerTableModel.java
source_allseeds/v2s1-orig/core/org/apache/jmeter/gui/util/JMeterMenuBar.java
source_allseeds/v2s1-orig/core/org/apache/jmeter/gui/util/NumberFieldErrorListener.java
source_allseeds/v2s1-orig/core/org/apache/jmeter/gui/util/MenuInfo.java
source_allseeds/v2s1-orig/core/org/apache/jmeter/gui/util/FocusRequester.java
source_allseeds/v2s1-orig/core/org/apache/jmeter/gui/AbstractJMeterGuiComponent.java
source_allseeds/v2s1-orig/core/org/apache/jmeter/gui/GuiReady.java
source_allseeds/v2s1-orig/core/org/apache/jmeter/gui/action/EnableComponent.java
source_allseeds/v2s1-orig/core/org/apache/jmeter/gui/action/EditCommand.java
source_allseeds/v2s1-orig/core/org/apache/jmeter/gui/action/DragNDrop.java
source_allseeds/v2s1-orig/core/org/apache/jmeter/gui/action/Analyze.java
source_allseeds/v2s1-orig/core/org/apache/jmeter/gui/action/CheckDirty.java
source_allseeds/v2s1-orig/core/org/apache/jmeter/gui/action/AddParent.java
source_allseeds/v2s1-orig/core/org/apache/jmeter/gui/action/CreateFunctionDialog.java
source_allseeds/v2s1-orig/core/org/apache/jmeter/gui/action/New.java
source_allseeds/v2s1-orig/core/org/apache/jmeter/gui/action/Remove.java
source_allseeds/v2s1-orig/core/org/apache/jmeter/gui/action/Load.java
source_allseeds/v2s1-orig/core/org/apache/jmeter/gui/action/SSLManagerCommand.java
source_allseeds/v2s1-orig/core/org/apache/jmeter/gui/action/AbstractAction.java
source_allseeds/v2s1-orig/core/org/apache/jmeter/gui/action/Start.java
source_allseeds/v2s1-orig/core/org/apache/jmeter/gui/action/RemoteStart.java
source_allseeds/v2s1-orig/core/org/apache/jmeter/gui/action/AddToTree.java
source_allseeds/v2s1-orig/core/org/apache/jmeter/gui/action/LookAndFeelCommand.java
source_allseeds/v2s1-orig/core/org/apache/jmeter/gui/action/Command.java
source_allseeds/v2s1-orig/core/org/apache/jmeter/gui/action/Save.java
source_allseeds/v2s1-orig/core/org/apache/jmeter/gui/action/Help.java
source_allseeds/v2s1-orig/core/org/apache/jmeter/gui/action/ActionRouter.java
source_allseeds/v2s1-orig/core/org/apache/jmeter/gui/action/Clear.java
source_allseeds/v2s1-orig/core/org/apache/jmeter/gui/action/ExitCommand.java
source_allseeds/v2s1-orig/core/org/apache/jmeter/gui/action/AboutCommand.java
source_allseeds/v2s1-orig/core/org/apache/jmeter/gui/action/ChangeLanguage.java
source_allseeds/v2s1-orig/core/org/apache/jmeter/gui/action/GlobalMouseListener.java
source_allseeds/v2s1-orig/core/org/apache/jmeter/gui/JMeterJListModel.java
source_allseeds/v2s1-orig/core/org/apache/jmeter/gui/GUIFactory.java
source_allseeds/v2s1-orig/core/org/apache/jmeter/gui/JMeterComponentModel.java
source_allseeds/v2s1-orig/core/org/apache/jmeter/gui/JMeterFileFilter.java
source_allseeds/v2s1-orig/core/org/apache/jmeter/gui/tree/JMeterTreeNode.java
source_allseeds/v2s1-orig/core/org/apache/jmeter/gui/tree/JMeterTreeModel.java
source_allseeds/v2s1-orig/core/org/apache/jmeter/gui/tree/JMeterTreeListener.java
source_allseeds/v2s1-orig/core/org/apache/jmeter/gui/tree/JMeterCellRenderer.java
source_allseeds/v2s1-orig/core/org/apache/jmeter/gui/JMeterGUIComponent.java
source_allseeds/v2s1-orig/core/org/apache/jmeter/gui/GuiPackage.java
source_allseeds/v2s1-orig/core/org/apache/jmeter/gui/MainFrame.java
source_allseeds/v2s1-orig/core/org/apache/jmeter/gui/ListDialog.java
source_allseeds/v2s1-orig/core/org/apache/jmeter/config/gui/AbstractConfigGui.java
source_allseeds/v2s1-orig/core/org/apache/jmeter/config/gui/AbstractResponseBasedModifierGui.java
source_allseeds/v2s1-orig/core/org/apache/jmeter/config/gui/LoginConfigGui.java
source_allseeds/v2s1-orig/core/org/apache/jmeter/config/gui/ArgumentsPanel.java
source_allseeds/v2s1-orig/core/org/apache/jmeter/config/gui/AbstractModifierGui.java
source_allseeds/v2s1-orig/core/org/apache/jmeter/config/ConfigTestElement.java
source_allseeds/v2s1-orig/core/org/apache/jmeter/config/Arguments.java
source_allseeds/v2s1-orig/core/org/apache/jmeter/config/Modifier.java
source_allseeds/v2s1-orig/core/org/apache/jmeter/config/ExtensionsFileFilter.java
source_allseeds/v2s1-orig/core/org/apache/jmeter/config/ConfigElement.java
source_allseeds/v2s1-orig/core/org/apache/jmeter/config/ResponseBasedModifier.java
source_allseeds/v2s1-orig/core/org/apache/jmeter/config/Argument.java
source_allseeds/v2s1-orig/core/org/apache/jmeter/config/LoginConfig.java
source_allseeds/v2s1-orig/core/org/apache/jmeter/swing/HtmlPane.java
source_allseeds/v2s1-orig/core/org/apache/jmeter/plugin/PluginManager.java
source_allseeds/v2s1-orig/core/org/apache/jmeter/plugin/JMeterPlugin.java
source_allseeds/v2s1-orig/core/org/apache/jmeter/control/NoEntryException.java
source_allseeds/v2s1-orig/core/org/apache/jmeter/control/gui/LogicControllerGui.java
source_allseeds/v2s1-orig/core/org/apache/jmeter/control/gui/WorkBenchGui.java
source_allseeds/v2s1-orig/core/org/apache/jmeter/control/gui/AbstractControllerGui.java
source_allseeds/v2s1-orig/core/org/apache/jmeter/control/gui/LoopControlPanel.java
source_allseeds/v2s1-orig/core/org/apache/jmeter/control/gui/TestPlanGui.java
source_allseeds/v2s1-orig/core/org/apache/jmeter/control/Controller.java
source_allseeds/v2s1-orig/core/org/apache/jmeter/control/GenericController.java
source_allseeds/v2s1-orig/core/org/apache/jmeter/control/LoopController.java
source_allseeds/v2s1-orig/core/org/apache/jmeter/reporters/AbstractListenerElement.java
source_allseeds/v2s1-orig/core/org/apache/jmeter/reporters/FileReporter.java
source_allseeds/v2s1-orig/core/org/apache/jmeter/reporters/ResultCollector.java
source_allseeds/v2s1-orig/core/org/apache/jmeter/exceptions/IllegalUserActionException.java
source_allseeds/v2s1-orig/core/org/apache/jmeter/ProxyAuthenticator.java
source_allseeds/v2s1-orig/core/org/apache/jmeter/JMeter.java
source_allseeds/v2s1-orig/core/org/apache/jmeter/NewDriver.java
source_allseeds/v2s1-orig/core/org/apache/jmeter/timers/gui/AbstractTimerGui.java
source_allseeds/v2s1-orig/core/org/apache/jmeter/timers/Timer.java
source_allseeds/v2s1-orig/core/org/apache/jmeter/testelement/TestListener.java
source_allseeds/v2s1-orig/core/org/apache/jmeter/testelement/VariablesCollection.java
source_allseeds/v2s1-orig/core/org/apache/jmeter/testelement/WorkBench.java
source_allseeds/v2s1-orig/core/org/apache/jmeter/testelement/ThreadListener.java
source_allseeds/v2s1-orig/core/org/apache/jmeter/testelement/PerSampleClonable.java
source_allseeds/v2s1-orig/core/org/apache/jmeter/testelement/TestElement.java
source_allseeds/v2s1-orig/core/org/apache/jmeter/testelement/TestPlan.java
source_allseeds/v2s1-orig/core/org/apache/jmeter/testelement/AbstractTestElement.java
source_allseeds/v2s1-orig/core/org/apache/jmeter/testelement/PerThreadClonable.java
source_allseeds/v2s1-orig/core/org/apache/jmeter/visualizers/gui/AbstractVisualizer.java
source_allseeds/v2s1-orig/core/org/apache/jmeter/visualizers/Visualizer.java
source_allseeds/v2s1-orig/core/org/apache/jmeter/visualizers/ImageVisualizer.java
source_allseeds/v2s1-orig/core/org/apache/jmeter/samplers/RemoteSampleListener.java
source_allseeds/v2s1-orig/core/org/apache/jmeter/samplers/Sampler.java
source_allseeds/v2s1-orig/core/org/apache/jmeter/samplers/gui/AbstractSamplerGui.java
source_allseeds/v2s1-orig/core/org/apache/jmeter/samplers/AbstractSampler.java
source_allseeds/v2s1-orig/core/org/apache/jmeter/samplers/SampleEvent.java
source_allseeds/v2s1-orig/core/org/apache/jmeter/samplers/RemoteListenerWrapper.java
source_allseeds/v2s1-orig/core/org/apache/jmeter/samplers/SampleResult.java
source_allseeds/v2s1-orig/core/org/apache/jmeter/samplers/CycleEntry.java
source_allseeds/v2s1-orig/core/org/apache/jmeter/samplers/Entry.java
source_allseeds/v2s1-orig/core/org/apache/jmeter/samplers/Clearable.java
source_allseeds/v2s1-orig/core/org/apache/jmeter/samplers/SampleListener.java
source_allseeds/v2s1-orig/core/org/apache/jmeter/samplers/RemoteTestListenerWrapper.java
source_allseeds/v2s1-orig/core/org/apache/jmeter/samplers/RemoteSampleListenerImpl.java
source_allseeds/v2s1-orig/core/org/apache/jmeter/samplers/RemoteSampleListenerWrapper.java
source_allseeds/v2s1-orig/core/org/apache/jmeter/samplers/Remoteable.java
source_allseeds/v2s1-orig/core/org/apache/jmeter/engine/JMeterEngine.java
source_allseeds/v2s1-orig/core/org/apache/jmeter/engine/RemoteJMeterEngine.java
source_allseeds/v2s1-orig/core/org/apache/jmeter/engine/StandardJMeterEngine.java
source_allseeds/v2s1-orig/core/org/apache/jmeter/engine/LagDetector.java
source_allseeds/v2s1-orig/core/org/apache/jmeter/engine/TreeCloner.java
source_allseeds/v2s1-orig/core/org/apache/jmeter/engine/ClientJMeterEngine.java
source_allseeds/v2s1-orig/core/org/apache/jmeter/engine/PreCompiler.java
source_allseeds/v2s1-orig/core/org/apache/jmeter/engine/ConvertListeners.java
source_allseeds/v2s1-orig/core/org/apache/jmeter/engine/JMeterEngineException.java
source_allseeds/v2s1-orig/core/org/apache/jmeter/engine/RemoteJMeterEngineImpl.java
source_allseeds/v2s1-orig/core/org/apache/jmeter/functions/gui/FunctionHelper.java
source_allseeds/v2s1-orig/core/org/apache/jmeter/functions/CompoundFunction.java
source_allseeds/v2s1-orig/core/org/apache/jmeter/functions/UnknownFunction.java
source_allseeds/v2s1-orig/core/org/apache/jmeter/functions/AbstractFunction.java
source_allseeds/v2s1-orig/core/org/apache/jmeter/functions/Function.java
source_allseeds/v2s1-orig/core/org/apache/jmeter/functions/ValueReplacer.java
source_allseeds/v2s1-orig/core/org/apache/jmeter/functions/InvalidVariableException.java
source_allseeds/v2s1-orig/core/org/apache/jmeter/junit/JMeterTest.java
source_allseeds/v2s1-orig/core/org/apache/jmeter/assertions/gui/AbstractAssertionGui.java
source_allseeds/v2s1-orig/core/org/apache/jmeter/assertions/Assertion.java
source_allseeds/v2s1-orig/core/org/apache/jmeter/assertions/AssertionResult.java
source_allseeds/v2s1-orig/core/org/apache/jmeter/save/SaveServiceConstants.java
source_allseeds/v2s1-orig/core/org/apache/jmeter/save/SaveService.java
source_allseeds/v2s1-orig/core/org/apache/jmeter/save/DataSource.java
source_allseeds/v2s1-orig/core/org/apache/jmeter/threads/gui/ThreadGroupGui.java
source_allseeds/v2s1-orig/core/org/apache/jmeter/threads/JMeterThreadMonitor.java
source_allseeds/v2s1-orig/core/org/apache/jmeter/threads/JMeterThread.java
source_allseeds/v2s1-orig/core/org/apache/jmeter/threads/ListenerNotifier.java
source_allseeds/v2s1-orig/core/org/apache/jmeter/threads/ReflectionThreadGroup.java
source_allseeds/v2s1-orig/core/org/apache/jmeter/threads/SamplePackage.java
source_allseeds/v2s1-orig/core/org/apache/jmeter/threads/ThreadGroup.java
source_allseeds/v2s1-orig/core/org/apache/jmeter/threads/TestCompiler.java
source_allseeds/v2s1-orig/core/org/apache/jmeter/threads/JMeterVariables.java
source_allseeds/v2s1-orig/components/org/apache/jmeter/control/gui/InterleaveControlGui.java
source_allseeds/v2s1-orig/components/org/apache/jmeter/control/gui/ModifyControllerGui.java
source_allseeds/v2s1-orig/components/org/apache/jmeter/control/gui/RandomControlGui.java
source_allseeds/v2s1-orig/components/org/apache/jmeter/control/gui/OnceOnlyControllerGui.java
source_allseeds/v2s1-orig/components/org/apache/jmeter/control/OnceOnlyController.java
source_allseeds/v2s1-orig/components/org/apache/jmeter/control/RandomController.java
source_allseeds/v2s1-orig/components/org/apache/jmeter/control/InterleaveControl.java
source_allseeds/v2s1-orig/components/org/apache/jmeter/control/ModifyController.java
source_allseeds/v2s1-orig/components/org/apache/jmeter/modifiers/gui/CounterConfigGui.java
source_allseeds/v2s1-orig/components/org/apache/jmeter/modifiers/gui/UserParametersGui.java
source_allseeds/v2s1-orig/components/org/apache/jmeter/modifiers/CounterConfig.java
source_allseeds/v2s1-orig/components/org/apache/jmeter/modifiers/UserParameters.java
source_allseeds/v2s1-orig/components/org/apache/jmeter/reporters/MailerResultCollector.java
source_allseeds/v2s1-orig/components/org/apache/jmeter/timers/GaussianRandomTimer.java
source_allseeds/v2s1-orig/components/org/apache/jmeter/timers/gui/UniformRandomTimerGui.java
source_allseeds/v2s1-orig/components/org/apache/jmeter/timers/gui/GaussianRandomTimerGui.java
source_allseeds/v2s1-orig/components/org/apache/jmeter/timers/gui/ConstantThroughputTimerGui.java
source_allseeds/v2s1-orig/components/org/apache/jmeter/timers/gui/ConstantTimerGui.java
source_allseeds/v2s1-orig/components/org/apache/jmeter/timers/RandomTimer.java
source_allseeds/v2s1-orig/components/org/apache/jmeter/timers/UniformRandomTimer.java
source_allseeds/v2s1-orig/components/org/apache/jmeter/timers/ConstantTimer.java
source_allseeds/v2s1-orig/components/org/apache/jmeter/timers/ConstantThroughputTimer.java
source_allseeds/v2s1-orig/components/org/apache/jmeter/visualizers/MailerModel.java
source_allseeds/v2s1-orig/components/org/apache/jmeter/visualizers/StatVisualizer.java
source_allseeds/v2s1-orig/components/org/apache/jmeter/visualizers/WindowedVisualizer.java
source_allseeds/v2s1-orig/components/org/apache/jmeter/visualizers/RunningSample.java
source_allseeds/v2s1-orig/components/org/apache/jmeter/visualizers/TreeVisualizer.java
source_allseeds/v2s1-orig/components/org/apache/jmeter/visualizers/Sample.java
source_allseeds/v2s1-orig/components/org/apache/jmeter/visualizers/TableDataModel.java
source_allseeds/v2s1-orig/components/org/apache/jmeter/visualizers/ViewResultsFullVisualizer.java
source_allseeds/v2s1-orig/components/org/apache/jmeter/visualizers/GraphAccum.java
source_allseeds/v2s1-orig/components/org/apache/jmeter/visualizers/SplineModel.java
source_allseeds/v2s1-orig/components/org/apache/jmeter/visualizers/AccumListener.java
source_allseeds/v2s1-orig/components/org/apache/jmeter/visualizers/GraphAccumListener.java
source_allseeds/v2s1-orig/components/org/apache/jmeter/visualizers/GraphVisualizer.java
source_allseeds/v2s1-orig/components/org/apache/jmeter/visualizers/AssertionVisualizer.java
source_allseeds/v2s1-orig/components/org/apache/jmeter/visualizers/TableVisualizer.java
source_allseeds/v2s1-orig/components/org/apache/jmeter/visualizers/GraphListener.java
source_allseeds/v2s1-orig/components/org/apache/jmeter/visualizers/GraphModel.java
source_allseeds/v2s1-orig/components/org/apache/jmeter/visualizers/StatVisualizerModel.java
source_allseeds/v2s1-orig/components/org/apache/jmeter/visualizers/MailerVisualizer.java
source_allseeds/v2s1-orig/components/org/apache/jmeter/visualizers/BarVisualizer.java
source_allseeds/v2s1-orig/components/org/apache/jmeter/visualizers/Graph.java
source_allseeds/v2s1-orig/components/org/apache/jmeter/visualizers/GraphAccumModel.java
source_allseeds/v2s1-orig/components/org/apache/jmeter/visualizers/Spline3.java
source_allseeds/v2s1-orig/components/org/apache/jmeter/visualizers/ModelListener.java
source_allseeds/v2s1-orig/components/org/apache/jmeter/visualizers/GraphAccumVisualizer.java
source_allseeds/v2s1-orig/components/org/apache/jmeter/visualizers/SplineVisualizer.java
source_allseeds/v2s1-orig/components/org/apache/jmeter/assertions/gui/AssertionGui.java
source_allseeds/v2s1-orig/components/org/apache/jmeter/assertions/gui/DurationAssertionGui.java
source_allseeds/v2s1-orig/components/org/apache/jmeter/assertions/gui/SizeAssertionGui.java
source_allseeds/v2s1-orig/components/org/apache/jmeter/assertions/ResponseAssertion.java
source_allseeds/v2s1-orig/components/org/apache/jmeter/assertions/SizeAssertion.java
source_allseeds/v2s1-orig/components/org/apache/jmeter/assertions/DurationAssertion.java
source_allseeds/v2s1-orig/functions/org/apache/jmeter/functions/IterationCounter.java
source_allseeds/v2s1-orig/functions/org/apache/jmeter/functions/RegexFunction.java
source_allseeds/v2s1-orig/functions/org/apache/jmeter/functions/IntSum.java
source_allseeds/v2s1-orig/functions/org/apache/jmeter/functions/ThreadNumber.java
source_allseeds/v2s1-orig/protocol/ftp/org/apache/jmeter/protocol/ftp/config/gui/FtpConfigGui.java
source_allseeds/v2s1-orig/protocol/ftp/org/apache/jmeter/protocol/ftp/config/FtpConfig.java
source_allseeds/v2s1-orig/protocol/ftp/org/apache/jmeter/protocol/ftp/control/gui/FtpTestSamplerGui.java
source_allseeds/v2s1-orig/protocol/ftp/org/apache/jmeter/protocol/ftp/sampler/FTPSampler.java
source_allseeds/v2s1-orig/protocol/ftp/org/apache/jmeter/protocol/ftp/sampler/FtpClient.java
source_allseeds/v2s1-orig/protocol/http/org/apache/jmeter/protocol/http/util/HTTPArgument.java
source_allseeds/v2s1-orig/protocol/http/org/apache/jmeter/protocol/http/util/Base64Encoder.java
source_allseeds/v2s1-orig/protocol/http/org/apache/jmeter/protocol/http/gui/HeaderPanel.java
source_allseeds/v2s1-orig/protocol/http/org/apache/jmeter/protocol/http/gui/HTTPArgumentsPanel.java
source_allseeds/v2s1-orig/protocol/http/org/apache/jmeter/protocol/http/gui/AuthPanel.java
source_allseeds/v2s1-orig/protocol/http/org/apache/jmeter/protocol/http/gui/CookiePanel.java
source_allseeds/v2s1-orig/protocol/http/org/apache/jmeter/protocol/http/config/gui/UrlConfigGui.java
source_allseeds/v2s1-orig/protocol/http/org/apache/jmeter/protocol/http/config/gui/MultipartUrlConfigGui.java
source_allseeds/v2s1-orig/protocol/http/org/apache/jmeter/protocol/http/config/gui/HttpDefaultsGui.java
source_allseeds/v2s1-orig/protocol/http/org/apache/jmeter/protocol/http/config/MultipartUrlConfig.java
source_allseeds/v2s1-orig/protocol/http/org/apache/jmeter/protocol/http/control/gui/SoapSamplerGui.java
source_allseeds/v2s1-orig/protocol/http/org/apache/jmeter/protocol/http/control/gui/RecordController.java
source_allseeds/v2s1-orig/protocol/http/org/apache/jmeter/protocol/http/control/gui/HttpTestSampleGui.java
source_allseeds/v2s1-orig/protocol/http/org/apache/jmeter/protocol/http/control/Header.java
source_allseeds/v2s1-orig/protocol/http/org/apache/jmeter/protocol/http/control/Authorization.java
source_allseeds/v2s1-orig/protocol/http/org/apache/jmeter/protocol/http/control/HeaderManager.java
source_allseeds/v2s1-orig/protocol/http/org/apache/jmeter/protocol/http/control/CookieManager.java
source_allseeds/v2s1-orig/protocol/http/org/apache/jmeter/protocol/http/control/Cookie.java
source_allseeds/v2s1-orig/protocol/http/org/apache/jmeter/protocol/http/control/AuthManager.java
source_allseeds/v2s1-orig/protocol/http/org/apache/jmeter/protocol/http/modifier/gui/UserParameterModifierGui.java
source_allseeds/v2s1-orig/protocol/http/org/apache/jmeter/protocol/http/modifier/gui/ParamModifierGui.java
source_allseeds/v2s1-orig/protocol/http/org/apache/jmeter/protocol/http/modifier/gui/AnchorModifierGui.java
source_allseeds/v2s1-orig/protocol/http/org/apache/jmeter/protocol/http/modifier/gui/URLRewritingModifierGui.java
source_allseeds/v2s1-orig/protocol/http/org/apache/jmeter/protocol/http/modifier/URLRewritingModifier.java
source_allseeds/v2s1-orig/protocol/http/org/apache/jmeter/protocol/http/modifier/UserParameterXMLErrorHandler.java
source_allseeds/v2s1-orig/protocol/http/org/apache/jmeter/protocol/http/modifier/ParamModifier.java
source_allseeds/v2s1-orig/protocol/http/org/apache/jmeter/protocol/http/modifier/UserSequence.java
source_allseeds/v2s1-orig/protocol/http/org/apache/jmeter/protocol/http/modifier/AnchorModifier.java
source_allseeds/v2s1-orig/protocol/http/org/apache/jmeter/protocol/http/modifier/ParamMask.java
source_allseeds/v2s1-orig/protocol/http/org/apache/jmeter/protocol/http/modifier/UserParameterModifier.java
source_allseeds/v2s1-orig/protocol/http/org/apache/jmeter/protocol/http/modifier/UserParameterXMLParser.java
source_allseeds/v2s1-orig/protocol/http/org/apache/jmeter/protocol/http/modifier/UserParameterXMLContentHandler.java
source_allseeds/v2s1-orig/protocol/http/org/apache/jmeter/protocol/http/sampler/SoapSampler.java
source_allseeds/v2s1-orig/protocol/http/org/apache/jmeter/protocol/http/sampler/HTTPSampler.java
source_allseeds/v2s1-orig/protocol/http/org/apache/jmeter/protocol/http/sampler/HTTPSamplerFull.java
source_allseeds/v2s1-orig/protocol/http/org/apache/jmeter/protocol/http/sampler/PostWriter.java
source_allseeds/v2s1-orig/protocol/http/org/apache/jmeter/protocol/http/parser/HtmlParser.java
source_allseeds/v2s1-orig/protocol/http/org/apache/jmeter/protocol/http/parser/HtmlForm.java
source_allseeds/v2s1-orig/protocol/http/org/apache/jmeter/protocol/http/parser/FormElement.java
source_allseeds/v2s1-orig/protocol/http/org/apache/jmeter/protocol/http/proxy/HttpRequestHdr.java
source_allseeds/v2s1-orig/protocol/http/org/apache/jmeter/protocol/http/proxy/Daemon.java
source_allseeds/v2s1-orig/protocol/http/org/apache/jmeter/protocol/http/proxy/ProxyControl.java
source_allseeds/v2s1-orig/protocol/http/org/apache/jmeter/protocol/http/proxy/Admin.java
source_allseeds/v2s1-orig/protocol/http/org/apache/jmeter/protocol/http/proxy/gui/ProxyControlGui.java
source_allseeds/v2s1-orig/protocol/http/org/apache/jmeter/protocol/http/proxy/HttpReplyHdr.java
source_allseeds/v2s1-orig/protocol/http/org/apache/jmeter/protocol/http/proxy/Cache.java
source_allseeds/v2s1-orig/protocol/http/org/apache/jmeter/protocol/http/proxy/Proxy.java
source_allseeds/v2s1-orig/protocol/http/org/apache/jmeter/protocol/http/proxy/Config.java
source_allseeds/v2s1-orig/protocol/http/org/apache/jmeter/junit/protocol/http/config/HttpConfigSuite.java
source_allseeds/v2s1-orig/protocol/http/org/apache/jmeter/junit/protocol/http/config/UrlConfigTest.java
source_allseeds/v2s1-orig/protocol/http/org/apache/jmeter/junit/protocol/http/parser/HtmlParserTester.java
source_allseeds/v2s1-orig/protocol/jdbc/org/apache/jmeter/protocol/jdbc/util/DBKey.java
source_allseeds/v2s1-orig/protocol/jdbc/org/apache/jmeter/protocol/jdbc/util/ConnectionObject.java
source_allseeds/v2s1-orig/protocol/jdbc/org/apache/jmeter/protocol/jdbc/util/DBConnectionManager.java
source_allseeds/v2s1-orig/protocol/jdbc/org/apache/jmeter/protocol/jdbc/config/SqlConfig.java
source_allseeds/v2s1-orig/protocol/jdbc/org/apache/jmeter/protocol/jdbc/config/gui/DbConfigGui.java
source_allseeds/v2s1-orig/protocol/jdbc/org/apache/jmeter/protocol/jdbc/config/gui/SqlConfigGui.java
source_allseeds/v2s1-orig/protocol/jdbc/org/apache/jmeter/protocol/jdbc/config/gui/PoolConfigGui.java
source_allseeds/v2s1-orig/protocol/jdbc/org/apache/jmeter/protocol/jdbc/config/PoolConfig.java
source_allseeds/v2s1-orig/protocol/jdbc/org/apache/jmeter/protocol/jdbc/config/DbConfig.java
source_allseeds/v2s1-orig/protocol/jdbc/org/apache/jmeter/protocol/jdbc/control/gui/JdbcTestSampleGui.java
source_allseeds/v2s1-orig/protocol/jdbc/org/apache/jmeter/protocol/jdbc/sampler/JDBCSampler.java
source_allseeds/v2s1-orig/protocol/java/org/apache/jmeter/protocol/java/config/gui/JavaConfigGui.java
source_allseeds/v2s1-orig/protocol/java/org/apache/jmeter/protocol/java/config/JavaConfig.java
source_allseeds/v2s1-orig/protocol/java/org/apache/jmeter/protocol/java/control/gui/JavaTestSamplerGui.java
source_allseeds/v2s1-orig/protocol/java/org/apache/jmeter/protocol/java/sampler/JavaSampler.java
source_allseeds/v2s1-orig/protocol/java/org/apache/jmeter/protocol/java/sampler/JavaSamplerClient.java
source_allseeds/v2s1-orig/protocol/java/org/apache/jmeter/protocol/java/test/SleepTest.java
