/home/hcai/SVNRepos/star-lab/trunk/Subjects/Nano/src/tdv1/RemoveChildIndex1_wy_v1.java
/home/hcai/SVNRepos/star-lab/trunk/Subjects/Nano/src/tdv1/RAttrVal4_wy_v1.java
/home/hcai/SVNRepos/star-lab/trunk/Subjects/Nano/src/tdv1/REnumChildren_wy_v1.java
/home/hcai/SVNRepos/star-lab/trunk/Subjects/Nano/src/tdv1/CheckAttr5_wy_v1.java
/home/hcai/SVNRepos/star-lab/trunk/Subjects/Nano/src/tdv1/CrElement3_wy_v1.java
/home/hcai/SVNRepos/star-lab/trunk/Subjects/Nano/src/tdv1/Writer6_wy_v1.java
/home/hcai/SVNRepos/star-lab/trunk/Subjects/Nano/src/tdv1/RemoveChild1_wy_v1.java
/home/hcai/SVNRepos/star-lab/trunk/Subjects/Nano/src/tdv1/RChildAtIndex2_wy_v1.java
/home/hcai/SVNRepos/star-lab/trunk/Subjects/Nano/src/tdv1/RAttrVal1_wy_v1.java
/home/hcai/SVNRepos/star-lab/trunk/Subjects/Nano/src/tdv1/CheckChildren1_wy_v1.java
/home/hcai/SVNRepos/star-lab/trunk/Subjects/Nano/src/tdv1/RAttrVal8_wy_v1.java
/home/hcai/SVNRepos/star-lab/trunk/Subjects/Nano/src/tdv1/CheckLeaf1_wy_v1.java
/home/hcai/SVNRepos/star-lab/trunk/Subjects/Nano/src/tdv1/RemoveChildIndex4_wy_v1.java
/home/hcai/SVNRepos/star-lab/trunk/Subjects/Nano/src/tdv1/SetAttr1_wy_v1.java
/home/hcai/SVNRepos/star-lab/trunk/Subjects/Nano/src/tdv1/RemoveAttr2_wy_v1.java
/home/hcai/SVNRepos/star-lab/trunk/Subjects/Nano/src/tdv1/RAttrVal6_wy_v1.java
/home/hcai/SVNRepos/star-lab/trunk/Subjects/Nano/src/tdv1/CheckAttr2_wy_v1.java
/home/hcai/SVNRepos/star-lab/trunk/Subjects/Nano/src/tdv1/RAttrVal2_wy_v1.java
/home/hcai/SVNRepos/star-lab/trunk/Subjects/Nano/src/tdv1/SetCont2_wy_v1.java
/home/hcai/SVNRepos/star-lab/trunk/Subjects/Nano/src/tdv1/SetEleName1_wy_v1.java
/home/hcai/SVNRepos/star-lab/trunk/Subjects/Nano/src/tdv1/RChildCount_wy_v1.java
/home/hcai/SVNRepos/star-lab/trunk/Subjects/Nano/src/tdv1/Writer1_wy_v1.java
/home/hcai/SVNRepos/star-lab/trunk/Subjects/Nano/src/tdv1/RPropAttr_wy_v1.java
/home/hcai/SVNRepos/star-lab/trunk/Subjects/Nano/src/tdv1/Parser4_vw_v1.java
/home/hcai/SVNRepos/star-lab/trunk/Subjects/Nano/src/tdv1/RFirstChild4_wy_v1.java
/home/hcai/SVNRepos/star-lab/trunk/Subjects/Nano/src/tdv1/Parser2_vw_v1.java
/home/hcai/SVNRepos/star-lab/trunk/Subjects/Nano/src/tdv1/RAttrVal9_wy_v1.java
/home/hcai/SVNRepos/star-lab/trunk/Subjects/Nano/src/tdv1/RVecChildren_wy_v1.java
/home/hcai/SVNRepos/star-lab/trunk/Subjects/Nano/src/tdv1/AllDriversMain.java
/home/hcai/SVNRepos/star-lab/trunk/Subjects/Nano/src/tdv1/SetAttr4_wy_v1.java
/home/hcai/SVNRepos/star-lab/trunk/Subjects/Nano/src/tdv1/CrElement2_wy_v1.java
/home/hcai/SVNRepos/star-lab/trunk/Subjects/Nano/src/tdv1/SetAttr2_wy_v1.java
/home/hcai/SVNRepos/star-lab/trunk/Subjects/Nano/src/tdv1/CheckAttr3_wy_v1.java
/home/hcai/SVNRepos/star-lab/trunk/Subjects/Nano/src/tdv1/Parser3_vw_v0.java
/home/hcai/SVNRepos/star-lab/trunk/Subjects/Nano/src/tdv1/RFirstChild1_wy_v1.java
/home/hcai/SVNRepos/star-lab/trunk/Subjects/Nano/src/tdv1/RemoveAttr1_wy_v1.java
/home/hcai/SVNRepos/star-lab/trunk/Subjects/Nano/src/tdv1/Parser3_vw_v1.java
/home/hcai/SVNRepos/star-lab/trunk/Subjects/Nano/src/tdv1/AddChild1_wy_v1.java
/home/hcai/SVNRepos/star-lab/trunk/Subjects/Nano/src/tdv1/RFirstChild3_wy_v1.java
/home/hcai/SVNRepos/star-lab/trunk/Subjects/Nano/src/tdv1/SetCont1_wy_v1.java
/home/hcai/SVNRepos/star-lab/trunk/Subjects/Nano/src/tdv1/SetAttr3_wy_v1.java
/home/hcai/SVNRepos/star-lab/trunk/Subjects/Nano/src/tdv1/CheckChildren3_wy_v1.java
/home/hcai/SVNRepos/star-lab/trunk/Subjects/Nano/src/tdv1/Parser5_vw_v1.java
/home/hcai/SVNRepos/star-lab/trunk/Subjects/Nano/src/tdv1/AddChild3_wy_v1.java
/home/hcai/SVNRepos/star-lab/trunk/Subjects/Nano/src/tdv1/REnumAttr_wy_v1.java
/home/hcai/SVNRepos/star-lab/trunk/Subjects/Nano/src/tdv1/RAttrVal7_wy_v1.java
/home/hcai/SVNRepos/star-lab/trunk/Subjects/Nano/src/tdv1/RemoveChildIndex3_wy_v1.java
/home/hcai/SVNRepos/star-lab/trunk/Subjects/Nano/src/tdv1/RAttrVal5_wy_v1.java
/home/hcai/SVNRepos/star-lab/trunk/Subjects/Nano/src/tdv1/RFirstChild2_wy_v1.java
/home/hcai/SVNRepos/star-lab/trunk/Subjects/Nano/src/tdv1/RVecChildNamed3_wy_v1.java
/home/hcai/SVNRepos/star-lab/trunk/Subjects/Nano/src/tdv1/Parser6_vw_v1.java
/home/hcai/SVNRepos/star-lab/trunk/Subjects/Nano/src/tdv1/RContent_wy_v1.java
/home/hcai/SVNRepos/star-lab/trunk/Subjects/Nano/src/tdv1/Parser2_vw_v0.java
/home/hcai/SVNRepos/star-lab/trunk/Subjects/Nano/src/tdv1/CheckLeaf3_wy_v1.java
/home/hcai/SVNRepos/star-lab/trunk/Subjects/Nano/src/tdv1/RChildAtIndex4_wy_v1.java
/home/hcai/SVNRepos/star-lab/trunk/Subjects/Nano/src/tdv1/Writer2_wy_v1.java
/home/hcai/SVNRepos/star-lab/trunk/Subjects/Nano/src/tdv1/REleName_wy_v1.java
/home/hcai/SVNRepos/star-lab/trunk/Subjects/Nano/src/tdv1/Parser1_vw_v0.java
/home/hcai/SVNRepos/star-lab/trunk/Subjects/Nano/src/tdv1/Parser1_vw_v1.java
/home/hcai/SVNRepos/star-lab/trunk/Subjects/Nano/src/tdv1/Writer3_wy_v1.java
/home/hcai/SVNRepos/star-lab/trunk/Subjects/Nano/src/tdv1/CrElement1_wy_v1.java
/home/hcai/SVNRepos/star-lab/trunk/Subjects/Nano/src/tdv1/Parser6_vw_v0.java
/home/hcai/SVNRepos/star-lab/trunk/Subjects/Nano/src/tdv1/RVecChildNamed1_wy_v1.java
/home/hcai/SVNRepos/star-lab/trunk/Subjects/Nano/src/tdv1/Parser5_vw_v0.java
/home/hcai/SVNRepos/star-lab/trunk/Subjects/Nano/src/tdv1/SetEleName2_wy_v1.java
/home/hcai/SVNRepos/star-lab/trunk/Subjects/Nano/src/tdv1/CheckLeaf2_wy_v1.java
/home/hcai/SVNRepos/star-lab/trunk/Subjects/Nano/src/tdv1/CheckAttr4_wy_v1.java
/home/hcai/SVNRepos/star-lab/trunk/Subjects/Nano/src/tdv1/Writer5_wy_v1.java
/home/hcai/SVNRepos/star-lab/trunk/Subjects/Nano/src/tdv1/RemoveChild3_wy_v1.java
/home/hcai/SVNRepos/star-lab/trunk/Subjects/Nano/src/tdv1/RChildAtIndex3_wy_v1.java
/home/hcai/SVNRepos/star-lab/trunk/Subjects/Nano/src/tdv1/RVecChildNamed2_wy_v1.java
/home/hcai/SVNRepos/star-lab/trunk/Subjects/Nano/src/tdv1/RAttrVal3_wy_v1.java
/home/hcai/SVNRepos/star-lab/trunk/Subjects/Nano/src/tdv1/Writer4_wy_v1.java
/home/hcai/SVNRepos/star-lab/trunk/Subjects/Nano/src/tdv1/AddChild2_wy_v1.java
/home/hcai/SVNRepos/star-lab/trunk/Subjects/Nano/src/tdv1/Parser4_vw_v0.java
/home/hcai/SVNRepos/star-lab/trunk/Subjects/Nano/src/tdv1/CheckAttr1_wy_v1.java
/home/hcai/SVNRepos/star-lab/trunk/Subjects/Nano/src/tdv1/RemoveChildIndex2_wy_v1.java
/home/hcai/SVNRepos/star-lab/trunk/Subjects/Nano/src/tdv1/RChildAtIndex1_wy_v1.java
/home/hcai/SVNRepos/star-lab/trunk/Subjects/Nano/src/tdv1/CheckChildren2_wy_v1.java
/home/hcai/SVNRepos/star-lab/trunk/Subjects/Nano/src/tdv1/RemoveChild2_wy_v1.java
