/home/hcai/SVNRepos/star-lab/trunk/Subjects/Nano/src/v1s1-orig/net/n3/nanoxml/XMLEntityResolver.java
/home/hcai/SVNRepos/star-lab/trunk/Subjects/Nano/src/v1s1-orig/net/n3/nanoxml/StdXMLBuilder.java
/home/hcai/SVNRepos/star-lab/trunk/Subjects/Nano/src/v1s1-orig/net/n3/nanoxml/StdXMLParser.java
/home/hcai/SVNRepos/star-lab/trunk/Subjects/Nano/src/v1s1-orig/net/n3/nanoxml/IXMLReader.java
/home/hcai/SVNRepos/star-lab/trunk/Subjects/Nano/src/v1s1-orig/net/n3/nanoxml/XMLValidationException.java
/home/hcai/SVNRepos/star-lab/trunk/Subjects/Nano/src/v1s1-orig/net/n3/nanoxml/IXMLParser.java
/home/hcai/SVNRepos/star-lab/trunk/Subjects/Nano/src/v1s1-orig/net/n3/nanoxml/XMLWriter.java
/home/hcai/SVNRepos/star-lab/trunk/Subjects/Nano/src/v1s1-orig/net/n3/nanoxml/IXMLBuilder.java
/home/hcai/SVNRepos/star-lab/trunk/Subjects/Nano/src/v1s1-orig/net/n3/nanoxml/XMLParserFactory.java
/home/hcai/SVNRepos/star-lab/trunk/Subjects/Nano/src/v1s1-orig/net/n3/nanoxml/NonValidator.java
/home/hcai/SVNRepos/star-lab/trunk/Subjects/Nano/src/v1s1-orig/net/n3/nanoxml/IXMLValidator.java
/home/hcai/SVNRepos/star-lab/trunk/Subjects/Nano/src/v1s1-orig/net/n3/nanoxml/XMLElement.java
/home/hcai/SVNRepos/star-lab/trunk/Subjects/Nano/src/v1s1-orig/net/n3/nanoxml/XMLUtil.java
/home/hcai/SVNRepos/star-lab/trunk/Subjects/Nano/src/v1s1-orig/net/n3/nanoxml/StdXMLReader.java
/home/hcai/SVNRepos/star-lab/trunk/Subjects/Nano/src/v1s1-orig/net/n3/nanoxml/ContentReader.java
/home/hcai/SVNRepos/star-lab/trunk/Subjects/Nano/src/v1s1-orig/net/n3/nanoxml/XMLParseException.java
