<e6 test="../baz" xml:base="http://www.example.org/2002/">
       <e7 xmlns="http://www.ietf.org">
           <e8 xmlns="" xmlns:a="http://www.w3.org" a:foo="bar">
               <e9 attr="default"></e9>
           </e8>
       </e7>
   </e6>