src\v1s3\org\apache\xml\security\Init.java
src\v1s3\org\apache\xml\security\algorithms\Algorithm.java
src\v1s3\org\apache\xml\security\algorithms\JCEMapper.java
src\v1s3\org\apache\xml\security\algorithms\MessageDigestAlgorithm.java
src\v1s3\org\apache\xml\security\algorithms\SignatureAlgorithm.java
src\v1s3\org\apache\xml\security\algorithms\SignatureAlgorithmSpi.java
src\v1s3\org\apache\xml\security\algorithms\encryption\EncryptionMethod.java
src\v1s3\org\apache\xml\security\algorithms\encryption\EncryptionMethodSpi.java
src\v1s3\org\apache\xml\security\algorithms\encryption\helper\AESWrapper.java
src\v1s3\org\apache\xml\security\algorithms\encryption\helper\InvalidCipherTextException.java
src\v1s3\org\apache\xml\security\algorithms\encryption\helper\OAEPCipher.java
src\v1s3\org\apache\xml\security\algorithms\encryption\helper\PKCS15Cipher.java
src\v1s3\org\apache\xml\security\algorithms\encryption\helper\TripleDESWrapper.java
src\v1s3\org\apache\xml\security\algorithms\encryption\implementations\BC\BlockEncryptionImpl.java
src\v1s3\org\apache\xml\security\algorithms\encryption\implementations\BC\BlockEncryptionImpl_AES128_BC.java
src\v1s3\org\apache\xml\security\algorithms\encryption\implementations\BC\BlockEncryptionImpl_AES192_BC.java
src\v1s3\org\apache\xml\security\algorithms\encryption\implementations\BC\BlockEncryptionImpl_AES256_BC.java
src\v1s3\org\apache\xml\security\algorithms\encryption\implementations\BC\BlockEncryptionImpl_TRIPLEDES_BC.java
src\v1s3\org\apache\xml\security\algorithms\encryption\implementations\BC\KeyTransportImpl.java
src\v1s3\org\apache\xml\security\algorithms\encryption\implementations\BC\KeyTransportImpl_RSAOAEP_BC.java
src\v1s3\org\apache\xml\security\algorithms\encryption\implementations\BC\KeyTransportImpl_RSAPKCS15_BC.java
src\v1s3\org\apache\xml\security\algorithms\encryption\implementations\BC\KeyWrapImpl_AES128_BC.java
src\v1s3\org\apache\xml\security\algorithms\encryption\implementations\BC\KeyWrapImpl_AES192_BC.java
src\v1s3\org\apache\xml\security\algorithms\encryption\implementations\BC\KeyWrapImpl_AES256_BC.java
src\v1s3\org\apache\xml\security\algorithms\encryption\implementations\BC\KeyWrapImpl_AES_BC.java
src\v1s3\org\apache\xml\security\algorithms\encryption\implementations\BC\KeyWrapImpl_TRIPLEDES_BC.java
src\v1s3\org\apache\xml\security\algorithms\encryption\params\EncryptionMethodParams.java
src\v1s3\org\apache\xml\security\algorithms\encryption\params\OAEPParams.java
src\v1s3\org\apache\xml\security\algorithms\encryption\params\StreamParams.java
src\v1s3\org\apache\xml\security\algorithms\implementations\IntegrityHmac.java
src\v1s3\org\apache\xml\security\algorithms\implementations\SignatureBaseRSA.java
src\v1s3\org\apache\xml\security\algorithms\implementations\SignatureDSA.java
src\v1s3\org\apache\xml\security\c14n\CanonicalizationException.java
src\v1s3\org\apache\xml\security\c14n\Canonicalizer.java
src\v1s3\org\apache\xml\security\c14n\CanonicalizerSpi.java
src\v1s3\org\apache\xml\security\c14n\InvalidCanonicalizerException.java
src\v1s3\org\apache\xml\security\c14n\helper\AlwaysAcceptNodeFilter.java
src\v1s3\org\apache\xml\security\c14n\helper\AttrCompare.java
src\v1s3\org\apache\xml\security\c14n\helper\C14nHelper.java
src\v1s3\org\apache\xml\security\c14n\helper\C14nNodeFilter.java
src\v1s3\org\apache\xml\security\c14n\helper\NSAttrCompare.java
src\v1s3\org\apache\xml\security\c14n\helper\NonNSAttrCompare.java
src\v1s3\org\apache\xml\security\c14n\implementations\Canonicalizer20010315.java
src\v1s3\org\apache\xml\security\c14n\implementations\Canonicalizer20010315Excl.java
src\v1s3\org\apache\xml\security\c14n\implementations\Canonicalizer20010315ExclOmitComments.java
src\v1s3\org\apache\xml\security\c14n\implementations\Canonicalizer20010315ExclWithComments.java
src\v1s3\org\apache\xml\security\c14n\implementations\Canonicalizer20010315OmitComments.java
src\v1s3\org\apache\xml\security\c14n\implementations\Canonicalizer20010315WithComments.java
src\v1s3\org\apache\xml\security\encryption\CarriedKeyName.java
src\v1s3\org\apache\xml\security\encryption\CipherData.java
src\v1s3\org\apache\xml\security\encryption\CipherReference.java
src\v1s3\org\apache\xml\security\encryption\CipherValue.java
src\v1s3\org\apache\xml\security\encryption\DataReference.java
src\v1s3\org\apache\xml\security\encryption\EncryptedData.java
src\v1s3\org\apache\xml\security\encryption\EncryptedKey.java
src\v1s3\org\apache\xml\security\encryption\EncryptionProperties.java
src\v1s3\org\apache\xml\security\encryption\EncryptionProperty.java
src\v1s3\org\apache\xml\security\encryption\KeyReference.java
src\v1s3\org\apache\xml\security\encryption\ReferenceList.java
src\v1s3\org\apache\xml\security\encryption\Transforms.java
src\v1s3\org\apache\xml\security\encryption\type\EncryptedType.java
src\v1s3\org\apache\xml\security\encryption\type\ReferenceType.java
src\v1s3\org\apache\xml\security\exceptions\AlgorithmAlreadyRegisteredException.java
src\v1s3\org\apache\xml\security\exceptions\Base64DecodingException.java
src\v1s3\org\apache\xml\security\exceptions\XMLSecurityException.java
src\v1s3\org\apache\xml\security\keys\ContentHandlerAlreadyRegisteredException.java
src\v1s3\org\apache\xml\security\keys\KeyInfo.java
src\v1s3\org\apache\xml\security\keys\KeyUtils.java
src\v1s3\org\apache\xml\security\keys\content\KeyInfoContent.java
src\v1s3\org\apache\xml\security\keys\content\KeyName.java
src\v1s3\org\apache\xml\security\keys\content\KeyValue.java
src\v1s3\org\apache\xml\security\keys\content\MgmtData.java
src\v1s3\org\apache\xml\security\keys\content\PGPData.java
src\v1s3\org\apache\xml\security\keys\content\RetrievalMethod.java
src\v1s3\org\apache\xml\security\keys\content\SPKIData.java
src\v1s3\org\apache\xml\security\keys\content\X509Data.java
src\v1s3\org\apache\xml\security\keys\content\keyvalues\DSAKeyValue.java
src\v1s3\org\apache\xml\security\keys\content\keyvalues\KeyValueContent.java
src\v1s3\org\apache\xml\security\keys\content\keyvalues\RSAKeyValue.java
src\v1s3\org\apache\xml\security\keys\content\x509\XMLX509CRL.java
src\v1s3\org\apache\xml\security\keys\content\x509\XMLX509Certificate.java
src\v1s3\org\apache\xml\security\keys\content\x509\XMLX509DataContent.java
src\v1s3\org\apache\xml\security\keys\content\x509\XMLX509IssuerSerial.java
src\v1s3\org\apache\xml\security\keys\content\x509\XMLX509SKI.java
src\v1s3\org\apache\xml\security\keys\content\x509\XMLX509SubjectName.java
src\v1s3\org\apache\xml\security\keys\keyresolver\InvalidKeyResolverException.java
src\v1s3\org\apache\xml\security\keys\keyresolver\KeyResolver.java
src\v1s3\org\apache\xml\security\keys\keyresolver\KeyResolverException.java
src\v1s3\org\apache\xml\security\keys\keyresolver\KeyResolverSpi.java
src\v1s3\org\apache\xml\security\keys\keyresolver\implementations\DSAKeyValueResolver.java
src\v1s3\org\apache\xml\security\keys\keyresolver\implementations\RSAKeyValueResolver.java
src\v1s3\org\apache\xml\security\keys\keyresolver\implementations\RetrievalMethodResolver.java
src\v1s3\org\apache\xml\security\keys\keyresolver\implementations\X509CertificateResolver.java
src\v1s3\org\apache\xml\security\keys\keyresolver\implementations\X509IssuerSerialResolver.java
src\v1s3\org\apache\xml\security\keys\keyresolver\implementations\X509SKIResolver.java
src\v1s3\org\apache\xml\security\keys\keyresolver\implementations\X509SubjectNameResolver.java
src\v1s3\org\apache\xml\security\keys\provider\Alias.java
src\v1s3\org\apache\xml\security\keys\provider\ApacheKeyStore.java
src\v1s3\org\apache\xml\security\keys\provider\ApacheKeyStoreConstants.java
src\v1s3\org\apache\xml\security\keys\provider\ApacheXMLProvider.java
src\v1s3\org\apache\xml\security\keys\provider\CertificateElement.java
src\v1s3\org\apache\xml\security\keys\provider\KeyBaseType.java
src\v1s3\org\apache\xml\security\keys\provider\KeyElement.java
src\v1s3\org\apache\xml\security\keys\provider\KeyStoreElement.java
src\v1s3\org\apache\xml\security\keys\provider\ProviderTest.java
src\v1s3\org\apache\xml\security\keys\storage\StorageResolver.java
src\v1s3\org\apache\xml\security\keys\storage\StorageResolverException.java
src\v1s3\org\apache\xml\security\keys\storage\StorageResolverSpi.java
src\v1s3\org\apache\xml\security\keys\storage\implementations\CertsInFilesystemDirectoryResolver.java
src\v1s3\org\apache\xml\security\keys\storage\implementations\KeyStoreResolver.java
src\v1s3\org\apache\xml\security\keys\storage\implementations\SingleCertificateResolver.java
src\v1s3\org\apache\xml\security\signature\InvalidDigestValueException.java
src\v1s3\org\apache\xml\security\signature\InvalidSignatureValueException.java
src\v1s3\org\apache\xml\security\signature\Manifest.java
src\v1s3\org\apache\xml\security\signature\MissingResourceFailureException.java
src\v1s3\org\apache\xml\security\signature\ObjectContainer.java
src\v1s3\org\apache\xml\security\signature\Reference.java
src\v1s3\org\apache\xml\security\signature\ReferenceNotInitializedException.java
src\v1s3\org\apache\xml\security\signature\SignatureProperties.java
src\v1s3\org\apache\xml\security\signature\SignatureProperty.java
src\v1s3\org\apache\xml\security\signature\SignedInfo.java
src\v1s3\org\apache\xml\security\signature\XMLSignature.java
src\v1s3\org\apache\xml\security\signature\XMLSignatureException.java
src\v1s3\org\apache\xml\security\signature\XMLSignatureInput.java
src\v1s3\org\apache\xml\security\transforms\InvalidTransformException.java
src\v1s3\org\apache\xml\security\transforms\Transform.java
src\v1s3\org\apache\xml\security\transforms\TransformParam.java
src\v1s3\org\apache\xml\security\transforms\TransformSpi.java
src\v1s3\org\apache\xml\security\transforms\TransformationException.java
src\v1s3\org\apache\xml\security\transforms\Transforms.java
src\v1s3\org\apache\xml\security\transforms\implementations\FuncHere.java
src\v1s3\org\apache\xml\security\transforms\implementations\FuncHereContext.java
src\v1s3\org\apache\xml\security\transforms\implementations\TransformBase64Decode.java
src\v1s3\org\apache\xml\security\transforms\implementations\TransformC14N.java
src\v1s3\org\apache\xml\security\transforms\implementations\TransformC14NExclusive.java
src\v1s3\org\apache\xml\security\transforms\implementations\TransformC14NExclusiveWithComments.java
src\v1s3\org\apache\xml\security\transforms\implementations\TransformC14NWithComments.java
src\v1s3\org\apache\xml\security\transforms\implementations\TransformEnvelopedSignature.java
src\v1s3\org\apache\xml\security\transforms\implementations\TransformXPath.java
src\v1s3\org\apache\xml\security\transforms\implementations\TransformXPath2Filter.java
src\v1s3\org\apache\xml\security\transforms\implementations\TransformXPath2Filter04.java
src\v1s3\org\apache\xml\security\transforms\implementations\TransformXPathFilterCHGP.java
src\v1s3\org\apache\xml\security\transforms\implementations\TransformXPointer.java
src\v1s3\org\apache\xml\security\transforms\implementations\TransformXSLT.java
src\v1s3\org\apache\xml\security\transforms\params\InclusiveNamespaces.java
src\v1s3\org\apache\xml\security\transforms\params\XPath2FilterContainer.java
src\v1s3\org\apache\xml\security\transforms\params\XPath2FilterContainer04.java
src\v1s3\org\apache\xml\security\transforms\params\XPathContainer.java
src\v1s3\org\apache\xml\security\transforms\params\XPathFilterCHGPContainer.java
src\v1s3\org\apache\xml\security\utils\Base64.java
src\v1s3\org\apache\xml\security\utils\CachedXPathFuncHereAPI.java
src\v1s3\org\apache\xml\security\utils\Constants.java
src\v1s3\org\apache\xml\security\utils\ElementProxy.java
src\v1s3\org\apache\xml\security\utils\EncryptionConstants.java
src\v1s3\org\apache\xml\security\utils\EncryptionElementProxy.java
src\v1s3\org\apache\xml\security\utils\HelperNodeList.java
src\v1s3\org\apache\xml\security\utils\HexDump.java
src\v1s3\org\apache\xml\security\utils\I18n.java
src\v1s3\org\apache\xml\security\utils\IdResolver.java
src\v1s3\org\apache\xml\security\utils\IgnoreAllErrorHandler.java
src\v1s3\org\apache\xml\security\utils\JavaUtils.java
src\v1s3\org\apache\xml\security\utils\NullAppender.java
src\v1s3\org\apache\xml\security\utils\PRNG.java
src\v1s3\org\apache\xml\security\utils\RFC2253Parser.java
src\v1s3\org\apache\xml\security\utils\SignatureElementProxy.java
src\v1s3\org\apache\xml\security\utils\Version.java
src\v1s3\org\apache\xml\security\utils\X509CertificateValidator.java
src\v1s3\org\apache\xml\security\utils\XMLUtils.java
src\v1s3\org\apache\xml\security\utils\XPathFuncHereAPI.java
src\v1s3\org\apache\xml\security\utils\resolver\ResourceResolver.java
src\v1s3\org\apache\xml\security\utils\resolver\ResourceResolverException.java
src\v1s3\org\apache\xml\security\utils\resolver\ResourceResolverSpi.java
src\v1s3\org\apache\xml\security\utils\resolver\implementations\ResolverAnonymous.java
src\v1s3\org\apache\xml\security\utils\resolver\implementations\ResolverDirectHTTP.java
src\v1s3\org\apache\xml\security\utils\resolver\implementations\ResolverFragment.java
src\v1s3\org\apache\xml\security\utils\resolver\implementations\ResolverLocalFilesystem.java
src\v1s3\org\apache\xml\security\utils\resolver\implementations\ResolverXPointer.java
